{
  "url": "http://10.0.0.72/cgi-bin/gdg?sysid=2&a=0&obj=interface&id=2&type=39&period=day&it=18/02/2021 16:10:00&ft=19/02/2021 16:10:00&id_domain=1&r=600&output=JSON&grt=0&on=",
  "data": {
    "HEADER": {
      "NUM_CURVES": 4,
      "START_TS": "1613644800",
      "RESOLUTION": 600,
      "NUM_POINTS": 145,
      "TITLE": "Traffic Interface localhost-net0, rate = 1 Gbps",
      "UNIT": "bps"
    },
    "CURVE_METADATA": [
      {
        "CURVE_COLOR": 3119919,
        "CURVE_TYPE": 4,
        "CURVE_LEGEND": "Input (max)",
        "CURVE_FORMULA": "",
        "CURVE_EXTRADATA": ""
      },
      {
        "CURVE_COLOR": 4181823,
        "CURVE_TYPE": 4,
        "CURVE_LEGEND": "Input",
        "CURVE_FORMULA": "",
        "CURVE_EXTRADATA": ""
      },
      {
        "CURVE_COLOR": 3092379,
        "CURVE_TYPE": 2,
        "CURVE_LEGEND": "Output (max)",
        "CURVE_FORMULA": "",
        "CURVE_EXTRADATA": ""
      },
      {
        "CURVE_COLOR": 4145103,
        "CURVE_TYPE": 2,
        "CURVE_LEGEND": "Output",
        "CURVE_FORMULA": "",
        "CURVE_EXTRADATA": ""
      }
    ],
    "CDATA": [
      [2443.06665, 2317.146606, 425.573334, 368.2666625],
      [2531.733398, 2385.5866695, 428.773346, 372.666672],
      [2614.719971, 2446.386597, 431.17334, 371.0666655],
      [2400.266602, 2372.34668, 423.17334, 369.0666655],
      [2405.733398, 2404.253418, 429.573334, 373.066666],
      [2549.813232, 2396.0532225, 421.573334, 367.866669],
      [2437.306641, 2329.1466065, 427.17334, 373.0666655],
      [3732.719971, 2997.679932, 527.65332, 420.106659],
      [3666.399902, 3187.399902, 431.226654, 426.399994],
      [2843.386719, 2660.546753, 427.17334, 371.0666655],
      [3038.82666, 2999.333374, 423.17334, 369.0666655],
      [3175.65332, 2977.7600095, 427.17334, 372.2666625],
      [2947.386719, 2812.2000735, 427.17334, 369.0666655],
      [2877.093262, 2860.8266605, 425.573334, 371.066666],
      [3179.360107, 2938.253418, 431.17334, 371.866669],
      [2888.93335, 2885.293335, 421.573334, 368.2666625],
      [2762.426758, 2749.58667, 431.17334, 372.2666625],
      [2936.82666, 2763.58667, 424.773346, 366.266678],
      [2863.040039, 2819.880005, 425.573334, 371.4666595],
      [3736.800049, 3636.1866455, 454.693329, 404.599991],
      [3174.800049, 2953.7733155, 423.17334, 371.866669],
      [5881.973145, 4357.133179, 638.506653, 475.933319],
      [8299.65332, 6151.7199705, 518.159973, 415.759979],
      [4929.306641, 4707.8532715, 511.066681, 436.786667],
      [4170.746582, 3605.533325, 425.573334, 411.0133365],
      [2831.493408, 2831.160034, 423.17334, 371.0666655],
      [2969.546631, 2837.546631, 397.519989, 345.4266665],
      [2823.866699, 2774.5600585, 440.799988, 369.066666],
      [3070.453369, 2885.546631, 450.399994, 373.0666655],
      [3280.026611, 3115.9333495, 443.200012, 369.0666655],
      [3343.466553, 3160.9865725, 444.799988, 371.8666535],
      [2853.280029, 2832.4666745, 448.799988, 371.066666],
      [2806.800049, 2732.920044, 440.799988, 369.8666535],
      [2680.58667, 2642, 314.959991, 306.946655],
      [2744.320068, 2664.65332, 427.17334, 369.0666655],
      [2764.773438, 2719.3333745, 429.573334, 371.4666595],
      [2855.06665, 2852.746704, 421.573334, 368.2666625],
      [2655.626709, 2647.41333, 431.17334, 371.866669],
      [2816.746582, 2771, 423.17334, 370.2666625],
      [2792.773438, 2786.680054, 427.17334, 369.866669],
      [3081.919922, 2837.493286, 427.17334, 371.466675],
      [2784.746582, 2762.3599855, 424.773346, 369.0666655],
      [2932.34668, 2863.4000245, 431.973328, 365.4533235],
      [2792.959961, 2779.799927, 389.519989, 354.23999],
      [3033.626709, 2988.373413, 428.773346, 369.8666685],
      [3162.23999, 2964.58667, 428.773346, 373.0666655],
      [2734.746582, 2729.986572, 424.773346, 367.0666655],
      [3017.17334, 2857.546631, 413.546661, 338.613327],
      [4078.23999, 3387.026611, 444.853333, 379.106659],
      [3860, 3341.3466795, 486.506653, 398.733322],
      [2857.093262, 2795.4000245, 427.17334, 370.2666625],
      [2968.693359, 2882.946655, 427.17334, 369.866669],
      [2861.946777, 2837.7333985, 431.17334, 373.0666655],
      [2825.706787, 2816.080078, 421.573334, 368.2666625],
      [3079.813232, 2903.6799315, 427.17334, 371.866669],
      [3043.813232, 2869.0932615, 423.17334, 370.2666625],
      [2951.52002, 2802.7733155, 425.573334, 368.2666625],
      [2747.600098, 2722.306763, 428.773346, 373.8666685],
      [2804.853271, 2710.3865965, 424.773346, 367.8666685],
      [3436.47998, 3139.3066405, 431.17334, 373.866669],
      [3690.34668, 3671.7733155, 423.17334, 369.866669],
      [3097.573242, 2925.8399655, 432.773346, 371.8666685],
      [4108.640137, 3958.800049, 427.17334, 370.2666625],
      [3712.080078, 3166.7333985, 428.773346, 369.8666685],
      [3143.41333, 2944.040039, 432.773346, 373.8666685],
      [4568.453125, 4449.626465, 426.746674, 397.5333405],
      [3035.893311, 2861.9866945, 429.573334, 369.4666595],
      [2521.466553, 2498.6132815, 424.773346, 371.0666655],
      [3038.959961, 2965.1866455, 428.773346, 369.8666685],
      [2996.106689, 2681.6400145, 428.773346, 373.0666655],
      [3017.893311, 2822.3333745, 424.773346, 369.8666685],
      [3759.226562, 3701.7199705, 469.119995, 413.013336],
      [3160.800049, 3114.6400145, 423.17334, 371.0666655],
      [3166.133301, 2776.426636, 425.573334, 367.4666595],
      [2562.266602, 2536.599976, 428.773346, 371.0666655],
      [2575.093262, 2485.5333255, 427.17334, 368.2666625],
      [2969.280029, 2752.8800045, 431.17334, 373.866669],
      [3113.253418, 3068.746704, 421.573334, 368.2666625],
      [3308.399902, 3150.5599365, 432.773346, 371.8666685],
      [3382.213379, 3025.3466795, 427.17334, 371.0666655],
      [2704.58667, 2557.5200195, 425.573334, 368.2666625],
      [2813.253418, 2766.213379, 432.773346, 373.8666685],
      [2729.040039, 2581, 423.17334, 369.866669],
      [2482.82666, 2473.333374, 427.17334, 371.866669],
      [2735.600098, 2605.5333255, 424.773346, 371.8666685],
      [2777.600098, 2698.4934085, 427.17334, 369.0666655],
      [3358.773438, 3285.4000245, 427.17334, 373.0666655],
      [3008.266602, 2838.2799075, 423.17334, 366.2666625],
      [3053.573242, 2832.026611, 432.773346, 373.0666655],
      [2668.853271, 2652.400024, 423.17334, 369.0666655],
      [3176.453369, 2823.506714, 431.17334, 397.9333345],
      [3330.23999, 3319.0933835, 474.293335, 449.7733305],
      [2580.800049, 2520.666748, 427.17334, 368.2666625],
      [3324.026611, 2908.1066895, 488.106659, 400.733322],
      [2387.600098, 2386.560059, 423.17334, 369.866669],
      [5597.839844, 4150.1466065, 536.400024, 444.866684],
      [3853.120117, 3726.7200925, 537.039978, 455.6666565],
      [3538.93335, 3103.58667, 427.17334, 418.506668],
      [3781.493408, 3436.666748, 536.23999, 427.5999905],
      [4792.560059, 4679.7734375, 480.106659, 418.506668],
      [3686.639893, 3304.1065675, 428.773346, 371.8666685],
      [2458.106689, 2448.8399655, 423.17334, 370.2666625],
      [2477.17334, 2383.133301, 425.573334, 368.2666625],
      [2454.213379, 2366.333374, 428.773346, 371.0666655],
      [2553.573242, 2448.4278565, 699.48175, 563.327545],
      [2407.493408, 2402.890503, 432.615387, 373.787689],
      [2438.213379, 2423.0666505, 423.17334, 369.0666655],
      [2446.453369, 2361.546631, 431.17334, 371.0666655],
      [2570.666748, 2407.4799805, 421.573334, 370.2666625],
      [2406.293213, 2355.866577, 440.799988, 369.066666],
      [2568.560059, 2514.013306, 448.799988, 373.066666],
      [2549.226562, 2428.5999755, 443.200012, 369.0666655],
      [2561.06665, 2417.65332, 444.799988, 371.066666],
      [5200.906738, 3739.960083, 552.853333, 423.0933385],
      [2842.959961, 2674.8666995, 439.200012, 389.2400055],
      [4378.799805, 3410.626587, 468.133331, 457.6666715],
      [2571.679932, 2478.5599365, 440.799988, 367.8666535],
      [3066, 2865.8133545, 443.200012, 372.266678],
      [2701.600098, 2645.1467285, 446.399994, 369.0666655],
      [2537.040039, 2422.2667235, 439.200012, 370.266678],
      [2416.639893, 2415.7733155, 444.799988, 371.066666],
      [2371.573242, 2354.880005, 439.200012, 368.266678],
      [2622.453369, 2530.786743, 443.200012, 373.0666655],
      [2546.453369, 2395.1066895, 446.399994, 369.866669],
      [2589.06665, 2435.026611, 443.200012, 371.0666655],
      [2453.893311, 2351.506714, 450.399994, 371.866669],
      [5958.906738, 4148.960083, 590, 443.666672],
      [3903.813232, 3195.146606, 503.76001, 430.800003],
      [2997.386719, 2831.3066405, 440.799988, 367.066666],
      [2697.41333, 2646.626709, 446.399994, 373.866669],
      [2481.199951, 2344.6933595, 443.200012, 368.266678],
      [3026.82666, 2988.706665, 484.34668, 422.1066745],
      [3523.466553, 2955.173218, 444.799988, 426.399994],
      [2381.813232, 2379.5999755, 440.799988, 369.066666],
      [2615.786621, 2427.613281, 446.399994, 374.6666565],
      [2463.840088, 2334.706665, 443.200012, 368.266678],
      [2540.773438, 2469.4400635, 440.799988, 371.8666535],
      [2455.679932, 2307.6132815, 448.799988, 371.8666535],
      [2409.600098, 2342.41333, 439.200012, 368.266678],
      [2410.453369, 2392.786743, 448.799988, 372.2666625],
      [2675.573242, 2446.3066405, 444.799988, 369.066666],
      [2462.58667, 2317.680054, 440, 368.666672],
      [2521.706787, 2373.9733885, 445.600006, 370.2666625],
      [2460, 2339.8133545, 439.200012, 369.8666685],
      [2400.053223, 2400.053223, 1120.453369, 1120.453369]
    ]
  },
  "success": true
}
