{
  "/p__welcome.js": "/p__welcome.05cb902a.async.js",
  "/t__plugin-layout__Layout.css": "/t__plugin-layout__Layout.68bfa84a.chunk.css",
  "/t__plugin-layout__Layout.js": "/t__plugin-layout__Layout.f2e53692.async.js",
  "/umi.css": "/umi.d8c8c76a.css",
  "/umi.js": "/umi.94ffc678.js",
  "/vendors~t__plugin-layout__Layout.css": "/vendors~t__plugin-layout__Layout.0638cda1.chunk.css",
  "/vendors~t__plugin-layout__Layout.js": "/vendors~t__plugin-layout__Layout.50c32d18.async.js",
  "/CNAME": "/CNAME",
  "/favicon.ico": "/favicon.ico",
  "/home_bg.png": "/home_bg.png",
  "/icons/icon-128x128.png": "/icons/icon-128x128.png",
  "/icons/icon-192x192.png": "/icons/icon-192x192.png",
  "/icons/icon-512x512.png": "/icons/icon-512x512.png",
  "/index.html": "/index.html",
  "/pro_icon.svg": "/pro_icon.svg"
}